…
First, I map logits into confidence scores using the `softmax()` function (for now I ignore the scaling parameter `temp`):

``` r
softmax <- function(x, temp = 1) {
  exp(x / temp) / sum(exp(x / temp))
}
```

``` r
df <- data %>% 
  mutate(.pred_neg = map(logits, ~ softmax(.) %>% .[1]) %>% unlist,
         .pred_pos = map(logits, ~ softmax(.) %>% .[2]) %>% unlist)

df
## # A tibble: 500 x 4
##    labels logits    .pred_neg .pred_pos
##    <fct>  <list>        <dbl>     <dbl>
##  1 0      <dbl [2]>    0.781    0.219  
##  2 0      <dbl [2]>    0.975    0.0249 
##  3 0      <dbl [2]>    0.0332   0.967  
##  4 0      <dbl [2]>    0.997    0.00270
##  5 0      <dbl [2]>    0.551    0.449  
##  6 0      <dbl [2]>    0.996    0.00365
##  7 0      <dbl [2]>    0.997    0.00266
##  8 0      <dbl [2]>    0.993    0.00722
##  9 0      <dbl [2]>    0.960    0.0401 
## 10 1      <dbl [2]>    0.265    0.735  
## # ... with 490 more rows
```
…
